Organisation des données et opérations sur des tableaux
…
Sélection et filtre

Sélectionner: colonnes

Filtrer: les lignes

Sélectionner

Par indice

chicoute[, c(1, 4, 13)]

## # A tibble: 90 x 3
##       ID  Site TotalFloral_nombre_m2
##    <dbl> <dbl>                 <dbl>
##  1     1     1                 197. 
##  2     2     2                 127. 
##  3     3     3                  71.3
##  4     4     4                 150. 
##  5     5     5                 199. 
##  6     6     1                  28.0
##  7     7     2                  45.8
##  8     8     3                 108. 
##  9     9     4                  70.0
## 10    10     5                  49.7
## # … with 80 more rows
…
Sélectionner

Un vecteur de noms

chicoute[c("Site", "Latitude_m", "Longitude_m")] # ou bien chicoute[, c("Site", "Latitude_m", "Longitude_m")]

## # A tibble: 90 x 3
##     Site Latitude_m Longitude_m
##    <dbl>      <dbl>       <dbl>
##  1     1    5702454      490627
##  2     2    5702452      490634
##  3     3    5702461      490638
##  4     4    5702453      490647
##  5     5    5702445      490654
##  6     1    5706394      484865
##  7     2    5706307      484054
##  8     3    5702280      484742
##  9     4    5706324      484761
## 10     5    5706364      484780
## # … with 80 more rows

Sélectionner

Avec le symvol pipe, %>% (raccourci: Ctrl + Alt + M), qui se lit comme puis.

chicoute %>%
  select(Site, Latitude_m, Longitude_m) # ou siplement select

## # A tibble: 90 x 3
##     Site Latitude_m Longitude_m
##    <dbl>      <dbl>       <dbl>
##  1     1    5702454      490627
##  2     2    5702452      490634
##  3     3    5702461      490638
##  4     4    5702453      490647
##  5     5    5702445      490654
##  6     1    5706394      484865
##  7     2    5706307      484054
##  8     3    5702280      484742
##  9     4    5706324      484761
## 10     5    5706364      484780
## # … with 80 more rows
…
