Analyse et modélisation d’agroécosystèmes
…
draws_tidy <- draws %>%
  spread_draws(int, coef, sd)
draws_tidy

## # A tibble: 4,000 x 6
##    .chain .iteration .draw   int  coef    sd
##     <int>      <int> <int> <dbl> <dbl> <dbl>
##  1      1          1     1  104. -26.3  2.57
##  2      1          2     2  105. -27.4  2.57
##  3      1          3     3  105. -27.6  2.77
##  4      1          4     4  106. -28.1  2.42
##  5      1          5     5  105. -27.0  2.69
##  6      1          6     6  105. -28.9  2.78
##  7      1          7     7  106. -28.8  3.15
##  8      1          8     8  105. -27.1  2.67
##  9      1          9     9  104. -26.6  2.74
## 10      1         10    10  105. -27.8  2.87
## # … with 3,990 more rows
…
