10 Détection de valeurs aberrantes et imputation de données manquantes | Analyse et modélisation d’agroécosystèmes
…
En se servant des possibilités de dplyr, on pourra détecter les valeurs aberrantes par groupe.

select <- dplyr::select # pour corriger un bug dû au module MASS

mtcars %>% 
  group_by(cyl) %>% # grouper par cylindre
  mutate(io = iqr_01(hp)) %>%  # détecter les valeurs aberrantes
  filter(io == 1) %>% # ne conserver que les valeurs non aberrantes
  select(-io) # enlever la colonne io créée précédemment

## # A tibble: 31 x 11
## # Groups:   cyl [3]
##      mpg   cyl  disp    hp  drat    wt  qsec    vs    am  gear  carb
##    <dbl> <dbl> <dbl> <dbl> <dbl> <dbl> <dbl> <dbl> <dbl> <dbl> <dbl>
##  1  21       6  160    110  3.9   2.62  16.5     0     1     4     4
##  2  21       6  160    110  3.9   2.88  17.0     0     1     4     4
##  3  22.8     4  108     93  3.85  2.32  18.6     1     1     4     1
##  4  21.4     6  258    110  3.08  3.22  19.4     1     0     3     1
##  5  18.7     8  360    175  3.15  3.44  17.0     0     0     3     2
##  6  18.1     6  225    105  2.76  3.46  20.2     1     0     3     1
##  7  14.3     8  360    245  3.21  3.57  15.8     0     0     3     4
##  8  24.4     4  147.    62  3.69  3.19  20       1     0     4     2
##  9  22.8     4  141.    95  3.92  3.15  22.9     1     0     4     2
## 10  19.2     6  168.   123  3.92  3.44  18.3     1     0     4     4
## # ... with 21 more rows
…
La foncion zscore_01 est conçue de la même manière que iqr_01.

mtcars %>% 
  group_by(cyl) %>% # grouper par cylindre
  mutate(io = zscore_01(hp)) %>%  # détecter les valeurs aberrantes
  filter(io == 1) %>% # ne conserver que les valeurs non aberrantes
  select(-io) # enlever la colonne io créée précédemment

## # A tibble: 32 x 11
## # Groups:   cyl [3]
##      mpg   cyl  disp    hp  drat    wt  qsec    vs    am  gear  carb
##    <dbl> <dbl> <dbl> <dbl> <dbl> <dbl> <dbl> <dbl> <dbl> <dbl> <dbl>
##  1  21       6  160    110  3.9   2.62  16.5     0     1     4     4
##  2  21       6  160    110  3.9   2.88  17.0     0     1     4     4
##  3  22.8     4  108     93  3.85  2.32  18.6     1     1     4     1
##  4  21.4     6  258    110  3.08  3.22  19.4     1     0     3     1
##  5  18.7     8  360    175  3.15  3.44  17.0     0     0     3     2
##  6  18.1     6  225    105  2.76  3.46  20.2     1     0     3     1
##  7  14.3     8  360    245  3.21  3.57  15.8     0     0     3     4
##  8  24.4     4  147.    62  3.69  3.19  20       1     0     4     2
##  9  22.8     4  141.    95  3.92  3.15  22.9     1     0     4     2
## 10  19.2     6  168.   123  3.92  3.44  18.3     1     0     4     4
## # ... with 22 more rows
…
