8 Association, partitionnement et ordination | Analyse et modélisation d’agroécosystèmes
…
Les mesures du tableau sont en centimètres. Pour éviter de donner davantage de poids aux longueur des sépales et en même temps de négliger la largeur des pétales, nous allons standardiser le tableau.

iris_sc <- iris %>%
  select(-Species) %>% 
  scale(.)%>% 
  as_tibble(.) %>% 
  mutate(Species = iris$Species) 
iris_sc

## # A tibble: 150 x 5
##    Sepal.Length Sepal.Width Petal.Length Petal.Width Species
##           <dbl>       <dbl>        <dbl>       <dbl> <fct>  
##  1       -0.898      1.02          -1.34       -1.31 setosa 
##  2       -1.14      -0.132         -1.34       -1.31 setosa 
##  3       -1.38       0.327         -1.39       -1.31 setosa 
##  4       -1.50       0.0979        -1.28       -1.31 setosa 
##  5       -1.02       1.25          -1.34       -1.31 setosa 
##  6       -0.535      1.93          -1.17       -1.05 setosa 
##  7       -1.50       0.786         -1.34       -1.18 setosa 
##  8       -1.02       0.786         -1.28       -1.31 setosa 
##  9       -1.74      -0.361         -1.34       -1.31 setosa 
## 10       -1.14       0.0979        -1.28       -1.44 setosa 
## # … with 140 more rows
…
